{
  "host": "localhost",
  "port": 3030,
  "web3_provider": "http://localhost:8545",
  "btc_client_key": "f08857b2f664e2807ca4644ca0e30fedba551cdd",
  "btc_client_secret": "c83bc2520688ddf2603b634b2e7bd0e936c87ba1",
  "btc_use_testnet": false
}
